PWD /home/fjunier/Git/Gitlab/frederic-junier/parc-nsi/docs/chapitre8/ressources
INPUT /etc/texmf/web2c/texmf.cnf
INPUT /usr/share/texmf/web2c/texmf.cnf
INPUT /usr/share/texlive/texmf-dist/web2c/texmf.cnf
INPUT /var/lib/texmf/web2c/pdftex/pdflatex.fmt
INPUT Chapitre6-ReprésentationEntiers-2021V1.tex
OUTPUT Chapitre6-ReprésentationEntiers-2021V1.log
INPUT /usr/share/texlive/texmf-dist/tex/latex/base/article.cls
INPUT /usr/share/texlive/texmf-dist/tex/latex/base/article.cls
INPUT /usr/share/texlive/texmf-dist/tex/latex/base/size12.clo
INPUT /usr/share/texlive/texmf-dist/tex/latex/base/size12.clo
INPUT /usr/share/texlive/texmf-dist/fonts/map/fontname/texfonts.map
INPUT /usr/share/texlive/texmf-dist/fonts/tfm/public/cm/cmr12.tfm
INPUT /usr/share/texlive/texmf-dist/tex/latex/etex-pkg/etex.sty
INPUT /usr/share/texlive/texmf-dist/tex/latex/etex-pkg/etex.sty
INPUT /usr/share/texlive/texmf-dist/tex/latex/base/fontenc.sty
INPUT /usr/share/texlive/texmf-dist/tex/latex/base/fontenc.sty
INPUT /usr/share/texlive/texmf-dist/fonts/tfm/jknappen/ec/ecrm1200.tfm
INPUT /usr/share/texlive/texmf-dist/tex/latex/base/inputenc.sty
INPUT /usr/share/texlive/texmf-dist/tex/latex/base/inputenc.sty
INPUT /usr/share/texlive/texmf-dist/tex/generic/babel/babel.sty
INPUT /usr/share/texlive/texmf-dist/tex/generic/babel/babel.sty
INPUT /usr/share/texlive/texmf-dist/tex/generic/babel/switch.def
INPUT /usr/share/texlive/texmf-dist/tex/generic/babel-french/french.ldf
INPUT /usr/share/texlive/texmf-dist/tex/generic/babel-french/french.ldf
INPUT /usr/share/texlive/texmf-dist/tex/generic/babel/babel.def
INPUT /usr/share/texlive/texmf-dist/tex/generic/babel/txtbabel.def
INPUT /usr/share/texlive/texmf-dist/tex/latex/carlisle/scalefnt.sty
INPUT /usr/share/texlive/texmf-dist/tex/latex/carlisle/scalefnt.sty
INPUT /usr/share/texlive/texmf-dist/tex/latex/graphics/keyval.sty
INPUT /usr/share/texlive/texmf-dist/tex/latex/graphics/keyval.sty
INPUT /usr/share/texlive/texmf-dist/tex/latex/geometry/geometry.sty
INPUT /usr/share/texlive/texmf-dist/tex/latex/geometry/geometry.sty
INPUT /usr/share/texlive/texmf-dist/tex/generic/iftex/ifvtex.sty
INPUT /usr/share/texlive/texmf-dist/tex/generic/iftex/ifvtex.sty
INPUT /usr/share/texlive/texmf-dist/tex/generic/iftex/iftex.sty
INPUT /usr/share/texlive/texmf-dist/tex/generic/iftex/iftex.sty
INPUT /usr/share/texlive/texmf-dist/tex/latex/setspace/setspace.sty
INPUT /usr/share/texlive/texmf-dist/tex/latex/setspace/setspace.sty
INPUT /usr/share/texlive/texmf-dist/tex/latex/lastpage/lastpage.sty
INPUT /usr/share/texlive/texmf-dist/tex/latex/lastpage/lastpage.sty
INPUT /usr/share/texlive/texmf-dist/tex/latex/graphics/lscape.sty
INPUT /usr/share/texlive/texmf-dist/tex/latex/graphics/lscape.sty
INPUT /usr/share/texlive/texmf-dist/tex/latex/graphics/graphics.sty
INPUT /usr/share/texlive/texmf-dist/tex/latex/graphics/graphics.sty
INPUT /usr/share/texlive/texmf-dist/tex/latex/graphics/trig.sty
INPUT /usr/share/texlive/texmf-dist/tex/latex/graphics/trig.sty
INPUT /usr/share/texlive/texmf-dist/tex/latex/graphics-cfg/graphics.cfg
INPUT /usr/share/texlive/texmf-dist/tex/latex/graphics-cfg/graphics.cfg
INPUT /usr/share/texlive/texmf-dist/tex/latex/graphics-def/pdftex.def
INPUT /usr/share/texlive/texmf-dist/tex/latex/graphics-def/pdftex.def
INPUT /usr/share/texlive/texmf-dist/tex/latex/tools/multicol.sty
INPUT /usr/share/texlive/texmf-dist/tex/latex/tools/multicol.sty
INPUT /usr/share/texlive/texmf-dist/tex/latex/tools/varioref.sty
INPUT /usr/share/texlive/texmf-dist/tex/latex/tools/varioref.sty
INPUT /usr/share/texlive/texmf-dist/tex/latex/hyperref/nameref.sty
INPUT /usr/share/texlive/texmf-dist/tex/latex/hyperref/nameref.sty
INPUT /usr/share/texlive/texmf-dist/tex/latex/refcount/refcount.sty
INPUT /usr/share/texlive/texmf-dist/tex/latex/refcount/refcount.sty
INPUT /usr/share/texlive/texmf-dist/tex/generic/ltxcmds/ltxcmds.sty
INPUT /usr/share/texlive/texmf-dist/tex/generic/ltxcmds/ltxcmds.sty
INPUT /usr/share/texlive/texmf-dist/tex/generic/infwarerr/infwarerr.sty
INPUT /usr/share/texlive/texmf-dist/tex/generic/infwarerr/infwarerr.sty
INPUT /usr/share/texlive/texmf-dist/tex/generic/gettitlestring/gettitlestring.sty
INPUT /usr/share/texlive/texmf-dist/tex/generic/gettitlestring/gettitlestring.sty
INPUT /usr/share/texlive/texmf-dist/tex/latex/kvoptions/kvoptions.sty
INPUT /usr/share/texlive/texmf-dist/tex/latex/kvoptions/kvoptions.sty
INPUT /usr/share/texlive/texmf-dist/tex/generic/kvsetkeys/kvsetkeys.sty
INPUT /usr/share/texlive/texmf-dist/tex/generic/kvsetkeys/kvsetkeys.sty
INPUT /usr/share/texlive/texmf-dist/tex/latex/tocvsec2/tocvsec2.sty
INPUT /usr/share/texlive/texmf-dist/tex/latex/tocvsec2/tocvsec2.sty
INPUT /usr/share/texlive/texmf-dist/tex/latex/base/ifthen.sty
INPUT /usr/share/texlive/texmf-dist/tex/latex/base/ifthen.sty
INPUT /usr/share/texmf/tex/latex/lm/lmodern.sty
INPUT /usr/share/texmf/tex/latex/lm/lmodern.sty
INPUT /usr/share/texlive/texmf-dist/tex/latex/psnfss/pifont.sty
INPUT /usr/share/texlive/texmf-dist/tex/latex/psnfss/pifont.sty
INPUT /usr/share/texlive/texmf-dist/tex/latex/psnfss/upzd.fd
INPUT /usr/share/texlive/texmf-dist/tex/latex/psnfss/upzd.fd
INPUT /usr/share/texlive/texmf-dist/fonts/tfm/adobe/zapfding/pzdr.tfm
INPUT /usr/share/texlive/texmf-dist/tex/latex/psnfss/upsy.fd
INPUT /usr/share/texlive/texmf-dist/tex/latex/psnfss/upsy.fd
INPUT /usr/share/texlive/texmf-dist/fonts/tfm/adobe/symbol/psyr.tfm
INPUT /usr/share/texlive/texmf-dist/tex/latex/fourier/fourier.sty
INPUT /usr/share/texlive/texmf-dist/tex/latex/fourier/fourier.sty
INPUT /usr/share/texlive/texmf-dist/tex/latex/base/fontenc.sty
INPUT /usr/share/texlive/texmf-dist/tex/latex/base/fontenc.sty
INPUT /usr/share/texlive/texmf-dist/tex/latex/fourier/t1futs.fd
INPUT /usr/share/texlive/texmf-dist/tex/latex/fourier/t1futs.fd
INPUT /usr/share/texlive/texmf-dist/fonts/tfm/public/fourier/futr8t.tfm
INPUT /usr/share/texlive/texmf-dist/tex/latex/base/textcomp.sty
INPUT /usr/share/texlive/texmf-dist/tex/latex/base/textcomp.sty
INPUT /usr/share/texlive/texmf-dist/tex/latex/fourier/fourier-orns.sty
INPUT /usr/share/texlive/texmf-dist/tex/latex/fourier/fourier-orns.sty
INPUT /usr/share/texlive/texmf-dist/tex/generic/ulem/ulem.sty
INPUT /usr/share/texlive/texmf-dist/tex/generic/ulem/ulem.sty
INPUT /usr/share/texlive/texmf-dist/fonts/tfm/public/latex-fonts/lasy6.tfm
INPUT /usr/share/texlive/texmf-dist/tex/latex/cancel/cancel.sty
INPUT /usr/share/texlive/texmf-dist/tex/latex/cancel/cancel.sty
INPUT /usr/share/texlive/texmf-dist/tex/latex/fancybox/fancybox.sty
INPUT /usr/share/texlive/texmf-dist/tex/latex/fancybox/fancybox.sty
INPUT /usr/share/texlive/texmf-dist/tex/latex/graphics/rotating.sty
INPUT /usr/share/texlive/texmf-dist/tex/latex/graphics/rotating.sty
INPUT /usr/share/texlive/texmf-dist/tex/latex/graphics/graphicx.sty
INPUT /usr/share/texlive/texmf-dist/tex/latex/graphics/graphicx.sty
INPUT /usr/share/texlive/texmf-dist/tex/latex/eurosym/eurosym.sty
INPUT /usr/share/texlive/texmf-dist/tex/latex/eurosym/eurosym.sty
INPUT /usr/share/texlive/texmf-dist/tex/latex/url/url.sty
INPUT /usr/share/texlive/texmf-dist/tex/latex/url/url.sty
INPUT /usr/share/texlive/texmf-dist/tex/latex/tools/verbatim.sty
INPUT /usr/share/texlive/texmf-dist/tex/latex/tools/verbatim.sty
INPUT /usr/share/texlive/texmf-dist/tex/latex/base/alltt.sty
INPUT /usr/share/texlive/texmf-dist/tex/latex/base/alltt.sty
INPUT /usr/share/texlive/texmf-dist/tex/latex/moreverb/moreverb.sty
INPUT /usr/share/texlive/texmf-dist/tex/latex/moreverb/moreverb.sty
INPUT /usr/share/texlive/texmf-dist/tex/latex/fancyvrb/fancyvrb.sty
INPUT /usr/share/texlive/texmf-dist/tex/latex/fancyvrb/fancyvrb.sty
INPUT /usr/share/texlive/texmf-dist/tex/latex/xcolor/xcolor.sty
INPUT /usr/share/texlive/texmf-dist/tex/latex/xcolor/xcolor.sty
INPUT /usr/share/texlive/texmf-dist/tex/latex/graphics-cfg/color.cfg
INPUT /usr/share/texlive/texmf-dist/tex/latex/graphics-cfg/color.cfg
INPUT /usr/share/texlive/texmf-dist/tex/latex/colortbl/colortbl.sty
INPUT /usr/share/texlive/texmf-dist/tex/latex/colortbl/colortbl.sty
INPUT /usr/share/texlive/texmf-dist/tex/latex/tools/array.sty
INPUT /usr/share/texlive/texmf-dist/tex/latex/tools/array.sty
INPUT /usr/share/texlive/texmf-dist/tex/latex/tools/enumerate.sty
INPUT /usr/share/texlive/texmf-dist/tex/latex/tools/enumerate.sty
INPUT /usr/share/texlive/texmf-dist/tex/latex/enumitem/enumitem.sty
INPUT /usr/share/texlive/texmf-dist/tex/latex/enumitem/enumitem.sty
INPUT /usr/share/texlive/texmf-dist/tex/latex/eepic/epic.sty
INPUT /usr/share/texlive/texmf-dist/tex/latex/eepic/epic.sty
INPUT /usr/share/texlive/texmf-dist/tex/latex/eepic/eepic.sty
INPUT /usr/share/texlive/texmf-dist/tex/latex/eepic/eepic.sty
INPUT /usr/share/texlive/texmf-dist/tex/latex/pstricks/pstricks.sty
INPUT /usr/share/texlive/texmf-dist/tex/latex/pstricks/pstricks.sty
INPUT /usr/share/texlive/texmf-dist/tex/latex/tools/shellesc.sty
INPUT /usr/share/texlive/texmf-dist/tex/latex/tools/shellesc.sty
INPUT /usr/share/texlive/texmf-dist/tex/generic/xkeyval/pst-xkey.tex
INPUT /usr/share/texlive/texmf-dist/tex/generic/xkeyval/pst-xkey.tex
INPUT /usr/share/texlive/texmf-dist/tex/latex/xkeyval/xkeyval.sty
INPUT /usr/share/texlive/texmf-dist/tex/latex/xkeyval/xkeyval.sty
INPUT /usr/share/texlive/texmf-dist/tex/generic/xkeyval/xkeyval.tex
INPUT /usr/share/texlive/texmf-dist/tex/generic/xkeyval/xkvutils.tex
INPUT /usr/share/texlive/texmf-dist/tex/generic/pstricks/pstricks.tex
INPUT /usr/share/texlive/texmf-dist/tex/generic/pstricks/pstricks.tex
INPUT /usr/share/texlive/texmf-dist/tex/generic/pstricks/pst-fp.tex
INPUT /usr/share/texlive/texmf-dist/tex/generic/pgf/utilities/pgfutil-common.tex
INPUT /usr/share/texlive/texmf-dist/tex/generic/pgf/utilities/pgfutil-common-lists.tex
INPUT /usr/share/texlive/texmf-dist/tex/generic/pgf/utilities/pgfkeys.code.tex
INPUT /usr/share/texlive/texmf-dist/tex/generic/pgf/utilities/pgfkeysfiltered.code.tex
INPUT /usr/share/texlive/texmf-dist/tex/generic/pgf/utilities/pgffor.code.tex
INPUT /usr/share/texlive/texmf-dist/tex/generic/pgf/math/pgfmath.code.tex
INPUT /usr/share/texlive/texmf-dist/tex/generic/pgf/math/pgfmathcalc.code.tex
INPUT /usr/share/texlive/texmf-dist/tex/generic/pgf/math/pgfmathutil.code.tex
INPUT /usr/share/texlive/texmf-dist/tex/generic/pgf/math/pgfmathparser.code.tex
INPUT /usr/share/texlive/texmf-dist/tex/generic/pgf/math/pgfmathfunctions.code.tex
INPUT /usr/share/texlive/texmf-dist/tex/generic/pgf/math/pgfmathfunctions.basic.code.tex
INPUT /usr/share/texlive/texmf-dist/tex/generic/pgf/math/pgfmathfunctions.trigonometric.code.tex
INPUT /usr/share/texlive/texmf-dist/tex/generic/pgf/math/pgfmathfunctions.random.code.tex
INPUT /usr/share/texlive/texmf-dist/tex/generic/pgf/math/pgfmathfunctions.comparison.code.tex
INPUT /usr/share/texlive/texmf-dist/tex/generic/pgf/math/pgfmathfunctions.base.code.tex
INPUT /usr/share/texlive/texmf-dist/tex/generic/pgf/math/pgfmathfunctions.round.code.tex
INPUT /usr/share/texlive/texmf-dist/tex/generic/pgf/math/pgfmathfunctions.misc.code.tex
INPUT /usr/share/texlive/texmf-dist/tex/generic/pgf/math/pgfmathfunctions.integerarithmetics.code.tex
INPUT /usr/share/texlive/texmf-dist/tex/generic/pgf/math/pgfmathfloat.code.tex
INPUT /usr/share/texlive/texmf-dist/tex/generic/pstricks/pstricks.con
INPUT /usr/share/texlive/texmf-dist/tex/generic/pstricks/pst-fp.tex
INPUT /usr/share/texlive/texmf-dist/tex/generic/pstricks/pst-fp.tex
INPUT /usr/share/texlive/texmf-dist/tex/latex/pst-plot/pst-plot.sty
INPUT /usr/share/texlive/texmf-dist/tex/latex/pst-plot/pst-plot.sty
INPUT /usr/share/texlive/texmf-dist/tex/latex/xkeyval/pst-xkey.sty
INPUT /usr/share/texlive/texmf-dist/tex/latex/xkeyval/pst-xkey.sty
INPUT /usr/share/texlive/texmf-dist/tex/latex/multido/multido.sty
INPUT /usr/share/texlive/texmf-dist/tex/latex/multido/multido.sty
INPUT /usr/share/texlive/texmf-dist/tex/generic/multido/multido.tex
INPUT /usr/share/texlive/texmf-dist/tex/generic/multido/multido.tex
INPUT /usr/share/texlive/texmf-dist/tex/generic/pst-plot/pst-plot.tex
INPUT /usr/share/texlive/texmf-dist/tex/generic/pst-plot/pst-plot.tex
INPUT /usr/share/texlive/texmf-dist/tex/generic/pst-tools/pst-tools.tex
INPUT /usr/share/texlive/texmf-dist/tex/generic/pstricks-add/pstricks-add.tex
INPUT /usr/share/texlive/texmf-dist/tex/generic/pst-node/pst-node.tex
INPUT /usr/share/texlive/texmf-dist/tex/generic/pst-arrow/pst-arrow.tex
INPUT /usr/share/texlive/texmf-dist/tex/generic/pst-3d/pst-3d.tex
INPUT /usr/share/texlive/texmf-dist/tex/generic/pst-math/pst-math.tex
INPUT /usr/share/texlive/texmf-dist/tex/latex/pst-text/pst-text.sty
INPUT /usr/share/texlive/texmf-dist/tex/latex/pst-text/pst-text.sty
INPUT /usr/share/texlive/texmf-dist/tex/generic/pst-text/pst-text.tex
INPUT /usr/share/texlive/texmf-dist/tex/generic/pst-text/pst-text.tex
INPUT /usr/share/texlive/texmf-dist/tex/latex/pst-tree/pst-tree.sty
INPUT /usr/share/texlive/texmf-dist/tex/latex/pst-tree/pst-tree.sty
INPUT /usr/share/texlive/texmf-dist/tex/generic/pst-tree/pst-tree.tex
INPUT /usr/share/texlive/texmf-dist/tex/generic/pst-tree/pst-tree.tex
INPUT /usr/share/texlive/texmf-dist/tex/latex/pst-eps/pst-eps.sty
INPUT /usr/share/texlive/texmf-dist/tex/latex/pst-eps/pst-eps.sty
INPUT /usr/share/texlive/texmf-dist/tex/generic/pst-eps/pst-eps.tex
INPUT /usr/share/texlive/texmf-dist/tex/generic/pst-eps/pst-eps.tex
INPUT /usr/share/texlive/texmf-dist/tex/latex/pst-fill/pst-fill.sty
INPUT /usr/share/texlive/texmf-dist/tex/latex/pst-fill/pst-fill.sty
INPUT /usr/share/texlive/texmf-dist/tex/generic/pst-fill/pst-fill.tex
INPUT /usr/share/texlive/texmf-dist/tex/generic/pst-fill/pst-fill.tex
INPUT /usr/share/texlive/texmf-dist/tex/latex/pst-node/pst-node.sty
INPUT /usr/share/texlive/texmf-dist/tex/latex/pst-node/pst-node.sty
INPUT /usr/share/texlive/texmf-dist/tex/generic/pst-node/pst-node.tex
INPUT /usr/share/texlive/texmf-dist/tex/generic/pst-node/pst-node.tex
INPUT /usr/share/texlive/texmf-dist/tex/latex/pst-math/pst-math.sty
INPUT /usr/share/texlive/texmf-dist/tex/latex/pst-math/pst-math.sty
INPUT /usr/share/texlive/texmf-dist/tex/latex/pst-calculate/pst-calculate.sty
INPUT /usr/share/texlive/texmf-dist/tex/latex/pst-calculate/pst-calculate.sty
INPUT /usr/share/texlive/texmf-dist/tex/latex/l3packages/xparse/xparse.sty
INPUT /usr/share/texlive/texmf-dist/tex/latex/l3packages/xparse/xparse.sty
INPUT /usr/share/texlive/texmf-dist/tex/latex/l3kernel/expl3.sty
INPUT /usr/share/texlive/texmf-dist/tex/latex/l3kernel/expl3.sty
INPUT /usr/share/texlive/texmf-dist/tex/latex/l3backend/l3backend-pdfmode.def
INPUT /usr/share/texlive/texmf-dist/tex/latex/l3backend/l3backend-pdfmode.def
INPUT /usr/share/texlive/texmf-dist/tex/latex/siunitx/siunitx.sty
INPUT /usr/share/texlive/texmf-dist/tex/latex/siunitx/siunitx.sty
INPUT /usr/share/texlive/texmf-dist/tex/latex/amsmath/amstext.sty
INPUT /usr/share/texlive/texmf-dist/tex/latex/amsmath/amstext.sty
INPUT /usr/share/texlive/texmf-dist/tex/latex/amsmath/amsgen.sty
INPUT /usr/share/texlive/texmf-dist/tex/latex/amsmath/amsgen.sty
INPUT /usr/share/texlive/texmf-dist/tex/latex/l3packages/l3keys2e/l3keys2e.sty
INPUT /usr/share/texlive/texmf-dist/tex/latex/l3packages/l3keys2e/l3keys2e.sty
INPUT /usr/share/texlive/texmf-dist/tex/latex/translator/translator.sty
INPUT /usr/share/texlive/texmf-dist/tex/latex/translator/translator.sty
INPUT /usr/share/texlive/texmf-dist/tex/latex/translator/translator.sty
INPUT /usr/share/texlive/texmf-dist/tex/generic/iftex/ifluatex.sty
INPUT /usr/share/texlive/texmf-dist/tex/generic/iftex/ifluatex.sty
INPUT /usr/share/texlive/texmf-dist/tex/generic/xstring/xstring.sty
INPUT /usr/share/texlive/texmf-dist/tex/generic/xstring/xstring.sty
INPUT /usr/share/texlive/texmf-dist/tex/generic/xstring/xstring.tex
INPUT /usr/share/texlive/texmf-dist/tex/generic/pst-math/pst-math.tex
INPUT /usr/share/texlive/texmf-dist/tex/latex/pstricks-add/pstricks-add.sty
INPUT /usr/share/texlive/texmf-dist/tex/latex/pstricks-add/pstricks-add.sty
INPUT /usr/share/texlive/texmf-dist/tex/latex/pst-3d/pst-3d.sty
INPUT /usr/share/texlive/texmf-dist/tex/latex/pst-3d/pst-3d.sty
INPUT /usr/share/texlive/texmf-dist/tex/generic/pst-3d/pst-3d.tex
INPUT /usr/share/texlive/texmf-dist/tex/generic/pst-3d/pst-3d.tex
INPUT /usr/share/texlive/texmf-dist/tex/generic/pstricks-add/pstricks-add.tex
INPUT /usr/share/texlive/texmf-dist/tex/generic/pstricks-add/pstricks-add.tex
INPUT /usr/share/texlive/texmf-dist/tex/latex/pst-eucl/pst-eucl.sty
INPUT /usr/share/texlive/texmf-dist/tex/latex/pst-eucl/pst-eucl.sty
INPUT /usr/share/texlive/texmf-dist/tex/latex/pst-tools/pst-tools.sty
INPUT /usr/share/texlive/texmf-dist/tex/latex/pst-tools/pst-tools.sty
INPUT /usr/share/texlive/texmf-dist/tex/generic/pst-tools/pst-tools.tex
INPUT /usr/share/texlive/texmf-dist/tex/generic/pst-tools/pst-tools.tex
INPUT /usr/share/texlive/texmf-dist/tex/generic/pst-eucl/pst-eucl.tex
INPUT /usr/share/texlive/texmf-dist/tex/generic/pst-eucl/pst-eucl.tex
INPUT /usr/share/texlive/texmf-dist/tex/generic/pst-arrow/pst-arrow.tex
INPUT /usr/share/texlive/texmf-dist/tex/latex/pgf/basiclayer/pgf.sty
INPUT /usr/share/texlive/texmf-dist/tex/latex/pgf/basiclayer/pgf.sty
INPUT /usr/share/texlive/texmf-dist/tex/latex/pgf/utilities/pgfrcs.sty
INPUT /usr/share/texlive/texmf-dist/tex/latex/pgf/utilities/pgfrcs.sty
INPUT /usr/share/texlive/texmf-dist/tex/generic/pgf/utilities/pgfutil-common.tex
INPUT /usr/share/texlive/texmf-dist/tex/generic/pgf/utilities/pgfutil-common-lists.tex
INPUT /usr/share/texlive/texmf-dist/tex/generic/pgf/utilities/pgfutil-latex.def
INPUT /usr/share/texlive/texmf-dist/tex/latex/ms/everyshi.sty
INPUT /usr/share/texlive/texmf-dist/tex/latex/ms/everyshi.sty
INPUT /usr/share/texlive/texmf-dist/tex/generic/pgf/utilities/pgfrcs.code.tex
INPUT /usr/share/texlive/texmf-dist/tex/generic/pgf/utilities/pgfrcs.code.tex
INPUT /usr/share/texlive/texmf-dist/tex/generic/pgf/pgf.revision.tex
INPUT /usr/share/texlive/texmf-dist/tex/generic/pgf/pgf.revision.tex
INPUT /usr/share/texlive/texmf-dist/tex/latex/pgf/basiclayer/pgfcore.sty
INPUT /usr/share/texlive/texmf-dist/tex/latex/pgf/basiclayer/pgfcore.sty
INPUT /usr/share/texlive/texmf-dist/tex/latex/pgf/systemlayer/pgfsys.sty
INPUT /usr/share/texlive/texmf-dist/tex/latex/pgf/systemlayer/pgfsys.sty
INPUT /usr/share/texlive/texmf-dist/tex/generic/pgf/systemlayer/pgfsys.code.tex
INPUT /usr/share/texlive/texmf-dist/tex/generic/pgf/systemlayer/pgfsys.code.tex
INPUT /usr/share/texlive/texmf-dist/tex/generic/pgf/utilities/pgfkeys.code.tex
INPUT /usr/share/texlive/texmf-dist/tex/generic/pgf/systemlayer/pgf.cfg
INPUT /usr/share/texlive/texmf-dist/tex/generic/pgf/systemlayer/pgfsys-pdftex.def
INPUT /usr/share/texlive/texmf-dist/tex/generic/pgf/systemlayer/pgfsys-pdftex.def
INPUT /usr/share/texlive/texmf-dist/tex/generic/pgf/systemlayer/pgfsys-common-pdf.def
INPUT /usr/share/texlive/texmf-dist/tex/generic/pgf/systemlayer/pgfsyssoftpath.code.tex
INPUT /usr/share/texlive/texmf-dist/tex/generic/pgf/systemlayer/pgfsyssoftpath.code.tex
INPUT /usr/share/texlive/texmf-dist/tex/generic/pgf/systemlayer/pgfsysprotocol.code.tex
INPUT /usr/share/texlive/texmf-dist/tex/generic/pgf/systemlayer/pgfsysprotocol.code.tex
INPUT /usr/share/texlive/texmf-dist/tex/generic/pgf/basiclayer/pgfcore.code.tex
INPUT /usr/share/texlive/texmf-dist/tex/generic/pgf/basiclayer/pgfcore.code.tex
INPUT /usr/share/texlive/texmf-dist/tex/generic/pgf/math/pgfmath.code.tex
INPUT /usr/share/texlive/texmf-dist/tex/generic/pgf/math/pgfint.code.tex
INPUT /usr/share/texlive/texmf-dist/tex/generic/pgf/basiclayer/pgfcorepoints.code.tex
INPUT /usr/share/texlive/texmf-dist/tex/generic/pgf/basiclayer/pgfcorepathconstruct.code.tex
INPUT /usr/share/texlive/texmf-dist/tex/generic/pgf/basiclayer/pgfcorepathusage.code.tex
INPUT /usr/share/texlive/texmf-dist/tex/generic/pgf/basiclayer/pgfcorescopes.code.tex
INPUT /usr/share/texlive/texmf-dist/tex/generic/pgf/basiclayer/pgfcoregraphicstate.code.tex
INPUT /usr/share/texlive/texmf-dist/tex/generic/pgf/basiclayer/pgfcoretransformations.code.tex
INPUT /usr/share/texlive/texmf-dist/tex/generic/pgf/basiclayer/pgfcorequick.code.tex
INPUT /usr/share/texlive/texmf-dist/tex/generic/pgf/basiclayer/pgfcoreobjects.code.tex
INPUT /usr/share/texlive/texmf-dist/tex/generic/pgf/basiclayer/pgfcorepathprocessing.code.tex
INPUT /usr/share/texlive/texmf-dist/tex/generic/pgf/basiclayer/pgfcorearrows.code.tex
INPUT /usr/share/texlive/texmf-dist/tex/generic/pgf/basiclayer/pgfcoreshade.code.tex
INPUT /usr/share/texlive/texmf-dist/tex/generic/pgf/basiclayer/pgfcoreimage.code.tex
INPUT /usr/share/texlive/texmf-dist/tex/generic/pgf/basiclayer/pgfcoreexternal.code.tex
INPUT /usr/share/texlive/texmf-dist/tex/generic/pgf/basiclayer/pgfcorelayers.code.tex
INPUT /usr/share/texlive/texmf-dist/tex/generic/pgf/basiclayer/pgfcoretransparency.code.tex
INPUT /usr/share/texlive/texmf-dist/tex/generic/pgf/basiclayer/pgfcorepatterns.code.tex
INPUT /usr/share/texlive/texmf-dist/tex/generic/pgf/basiclayer/pgfcorerdf.code.tex
INPUT /usr/share/texlive/texmf-dist/tex/generic/pgf/modules/pgfmoduleshapes.code.tex
INPUT /usr/share/texlive/texmf-dist/tex/generic/pgf/modules/pgfmoduleplot.code.tex
INPUT /usr/share/texlive/texmf-dist/tex/latex/pgf/compatibility/pgfcomp-version-0-65.sty
INPUT /usr/share/texlive/texmf-dist/tex/latex/pgf/compatibility/pgfcomp-version-0-65.sty
INPUT /usr/share/texlive/texmf-dist/tex/latex/pgf/compatibility/pgfcomp-version-1-18.sty
INPUT /usr/share/texlive/texmf-dist/tex/latex/pgf/compatibility/pgfcomp-version-1-18.sty
INPUT /usr/share/texlive/texmf-dist/tex/latex/pgf/frontendlayer/tikz.sty
INPUT /usr/share/texlive/texmf-dist/tex/latex/pgf/frontendlayer/tikz.sty
INPUT /usr/share/texlive/texmf-dist/tex/latex/pgf/utilities/pgffor.sty
INPUT /usr/share/texlive/texmf-dist/tex/latex/pgf/utilities/pgffor.sty
INPUT /usr/share/texlive/texmf-dist/tex/latex/pgf/utilities/pgfkeys.sty
INPUT /usr/share/texlive/texmf-dist/tex/latex/pgf/utilities/pgfkeys.sty
INPUT /usr/share/texlive/texmf-dist/tex/generic/pgf/utilities/pgfkeys.code.tex
INPUT /usr/share/texlive/texmf-dist/tex/generic/pgf/utilities/pgfkeys.code.tex
INPUT /usr/share/texlive/texmf-dist/tex/latex/pgf/math/pgfmath.sty
INPUT /usr/share/texlive/texmf-dist/tex/latex/pgf/math/pgfmath.sty
INPUT /usr/share/texlive/texmf-dist/tex/generic/pgf/math/pgfmath.code.tex
INPUT /usr/share/texlive/texmf-dist/tex/generic/pgf/math/pgfmath.code.tex
INPUT /usr/share/texlive/texmf-dist/tex/generic/pgf/utilities/pgffor.code.tex
INPUT /usr/share/texlive/texmf-dist/tex/generic/pgf/utilities/pgffor.code.tex
INPUT /usr/share/texlive/texmf-dist/tex/generic/pgf/math/pgfmath.code.tex
INPUT /usr/share/texlive/texmf-dist/tex/generic/pgf/frontendlayer/tikz/tikz.code.tex
INPUT /usr/share/texlive/texmf-dist/tex/generic/pgf/frontendlayer/tikz/tikz.code.tex
INPUT /usr/share/texlive/texmf-dist/tex/generic/pgf/libraries/pgflibraryplothandlers.code.tex
INPUT /usr/share/texlive/texmf-dist/tex/generic/pgf/libraries/pgflibraryplothandlers.code.tex
INPUT /usr/share/texlive/texmf-dist/tex/generic/pgf/modules/pgfmodulematrix.code.tex
INPUT /usr/share/texlive/texmf-dist/tex/generic/pgf/frontendlayer/tikz/libraries/tikzlibrarytopaths.code.tex
INPUT /usr/share/texlive/texmf-dist/tex/generic/pgf/frontendlayer/tikz/libraries/tikzlibrarytopaths.code.tex
INPUT /usr/share/texlive/texmf-dist/tex/latex/tkz-tab/tkz-tab.sty
INPUT /usr/share/texlive/texmf-dist/tex/latex/tkz-tab/tkz-tab.sty
INPUT /usr/share/texlive/texmf-dist/tex/generic/pgf/frontendlayer/tikz/libraries/tikzlibraryarrows.code.tex
INPUT /usr/share/texlive/texmf-dist/tex/generic/pgf/frontendlayer/tikz/libraries/tikzlibraryarrows.code.tex
INPUT /usr/share/texlive/texmf-dist/tex/generic/pgf/libraries/pgflibraryarrows.code.tex
INPUT /usr/share/texlive/texmf-dist/tex/generic/pgf/libraries/pgflibraryarrows.code.tex
INPUT /usr/share/texlive/texmf-dist/tex/generic/pgf/frontendlayer/tikz/libraries/tikzlibrarypatterns.code.tex
INPUT /usr/share/texlive/texmf-dist/tex/generic/pgf/frontendlayer/tikz/libraries/tikzlibrarypatterns.code.tex
INPUT /usr/share/texlive/texmf-dist/tex/generic/pgf/libraries/pgflibrarypatterns.code.tex
INPUT /usr/share/texlive/texmf-dist/tex/generic/pgf/libraries/pgflibrarypatterns.code.tex
INPUT /usr/share/texlive/texmf-dist/tex/generic/pgf/frontendlayer/tikz/libraries/tikzlibraryshapes.geometric.code.tex
INPUT /usr/share/texlive/texmf-dist/tex/generic/pgf/frontendlayer/tikz/libraries/tikzlibraryshapes.geometric.code.tex
INPUT /usr/share/texlive/texmf-dist/tex/generic/pgf/libraries/shapes/pgflibraryshapes.geometric.code.tex
INPUT /usr/share/texlive/texmf-dist/tex/generic/pgf/libraries/shapes/pgflibraryshapes.geometric.code.tex
INPUT /usr/share/texlive/texmf-dist/tex/generic/pgf/frontendlayer/tikz/libraries/tikzlibrarypetri.code.tex
INPUT /usr/share/texlive/texmf-dist/tex/generic/pgf/frontendlayer/tikz/libraries/tikzlibrarypetri.code.tex
INPUT /usr/share/texlive/texmf-dist/tex/generic/pgf/frontendlayer/tikz/libraries/tikzlibrarydecorations.code.tex
INPUT /usr/share/texlive/texmf-dist/tex/generic/pgf/frontendlayer/tikz/libraries/tikzlibrarydecorations.code.tex
INPUT /usr/share/texlive/texmf-dist/tex/generic/pgf/modules/pgfmoduledecorations.code.tex
INPUT /usr/share/texlive/texmf-dist/tex/generic/pgf/frontendlayer/tikz/libraries/tikzlibrarymath.code.tex
INPUT /usr/share/texlive/texmf-dist/tex/generic/pgf/frontendlayer/tikz/libraries/tikzlibrarymath.code.tex
INPUT /usr/share/texlive/texmf-dist/tex/generic/pgf/frontendlayer/tikz/libraries/tikzlibraryfpu.code.tex
INPUT /usr/share/texlive/texmf-dist/tex/generic/pgf/frontendlayer/tikz/libraries/tikzlibraryfpu.code.tex
INPUT /usr/share/texlive/texmf-dist/tex/generic/pgf/libraries/pgflibraryfpu.code.tex
INPUT /usr/share/texlive/texmf-dist/tex/generic/pgf/libraries/pgflibraryfpu.code.tex
INPUT /usr/share/texlive/texmf-dist/tex/latex/wrapfig/wrapfig.sty
INPUT /usr/share/texlive/texmf-dist/tex/latex/wrapfig/wrapfig.sty
INPUT /usr/share/texlive/texmf-dist/tex/latex/etoolbox/etoolbox.sty
INPUT /usr/share/texlive/texmf-dist/tex/latex/etoolbox/etoolbox.sty
INPUT /usr/share/texlive/texmf-dist/tex/generic/iftex/ifpdf.sty
INPUT /usr/share/texlive/texmf-dist/tex/generic/iftex/ifpdf.sty
INPUT /usr/share/texlive/texmf-dist/tex/latex/mdframed/mdframed.sty
INPUT /usr/share/texlive/texmf-dist/tex/latex/mdframed/mdframed.sty
INPUT /usr/share/texlive/texmf-dist/tex/latex/zref/zref-abspage.sty
INPUT /usr/share/texlive/texmf-dist/tex/latex/zref/zref-abspage.sty
INPUT /usr/share/texlive/texmf-dist/tex/latex/zref/zref-base.sty
INPUT /usr/share/texlive/texmf-dist/tex/latex/zref/zref-base.sty
INPUT /usr/share/texlive/texmf-dist/tex/generic/kvdefinekeys/kvdefinekeys.sty
INPUT /usr/share/texlive/texmf-dist/tex/generic/kvdefinekeys/kvdefinekeys.sty
INPUT /usr/share/texlive/texmf-dist/tex/latex/pdftexcmds/pdftexcmds.sty
INPUT /usr/share/texlive/texmf-dist/tex/latex/pdftexcmds/pdftexcmds.sty
INPUT /usr/share/texlive/texmf-dist/tex/generic/etexcmds/etexcmds.sty
INPUT /usr/share/texlive/texmf-dist/tex/generic/etexcmds/etexcmds.sty
INPUT /usr/share/texlive/texmf-dist/tex/latex/auxhook/auxhook.sty
INPUT /usr/share/texlive/texmf-dist/tex/latex/auxhook/auxhook.sty
INPUT /usr/share/texlive/texmf-dist/tex/generic/atbegshi/atbegshi.sty
INPUT /usr/share/texlive/texmf-dist/tex/generic/atbegshi/atbegshi.sty
INPUT /usr/share/texlive/texmf-dist/tex/latex/needspace/needspace.sty
INPUT /usr/share/texlive/texmf-dist/tex/latex/needspace/needspace.sty
INPUT /usr/share/texlive/texmf-dist/tex/latex/pgf/frontendlayer/tikz.sty
INPUT /usr/share/texlive/texmf-dist/tex/latex/mdframed/md-frame-1.mdf
INPUT /usr/share/texlive/texmf-dist/tex/latex/mdframed/md-frame-1.mdf
INPUT /usr/share/texlive/texmf-dist/tex/latex/bclogo/bclogo.sty
INPUT /usr/share/texlive/texmf-dist/tex/latex/bclogo/bclogo.sty
INPUT /usr/share/texlive/texmf-dist/tex/generic/pgf/frontendlayer/tikz/libraries/tikzlibraryshadows.code.tex
INPUT /usr/share/texlive/texmf-dist/tex/generic/pgf/frontendlayer/tikz/libraries/tikzlibraryshadows.code.tex
INPUT /usr/share/texlive/texmf-dist/tex/generic/pgf/frontendlayer/tikz/libraries/tikzlibraryfadings.code.tex
INPUT /usr/share/texlive/texmf-dist/tex/generic/pgf/frontendlayer/tikz/libraries/tikzlibraryfadings.code.tex
INPUT /usr/share/texlive/texmf-dist/tex/generic/pgf/libraries/pgflibraryfadings.code.tex
INPUT /usr/share/texlive/texmf-dist/tex/generic/pgf/libraries/pgflibraryfadings.code.tex
OUTPUT Chapitre6-ReprésentationEntiers-2021V1.pdf
INPUT /usr/share/texlive/texmf-dist/tex/generic/pgf/frontendlayer/tikz/libraries/tikzlibrarydecorations.pathmorphing.code.tex
INPUT /usr/share/texlive/texmf-dist/tex/generic/pgf/frontendlayer/tikz/libraries/tikzlibrarydecorations.pathmorphing.code.tex
INPUT /usr/share/texlive/texmf-dist/tex/generic/pgf/libraries/decorations/pgflibrarydecorations.pathmorphing.code.tex
INPUT /usr/share/texlive/texmf-dist/tex/generic/pgf/libraries/decorations/pgflibrarydecorations.pathmorphing.code.tex
INPUT /usr/share/texlive/texmf-dist/tex/latex/framed/framed.sty
INPUT /usr/share/texlive/texmf-dist/tex/latex/framed/framed.sty
INPUT /usr/share/texlive/texmf-dist/tex/generic/variations/variations.sty
INPUT /usr/share/texlive/texmf-dist/tex/generic/variations/variations.sty
INPUT /usr/share/texlive/texmf-dist/tex/generic/variations/variations.tex
INPUT /usr/share/texlive/texmf-dist/tex/latex/mathtools/mathtools.sty
INPUT /usr/share/texlive/texmf-dist/tex/latex/mathtools/mathtools.sty
INPUT /usr/share/texlive/texmf-dist/tex/latex/tools/calc.sty
INPUT /usr/share/texlive/texmf-dist/tex/latex/tools/calc.sty
INPUT /usr/share/texlive/texmf-dist/tex/latex/mathtools/mhsetup.sty
INPUT /usr/share/texlive/texmf-dist/tex/latex/mathtools/mhsetup.sty
INPUT /usr/share/texlive/texmf-dist/tex/latex/amsmath/amsmath.sty
INPUT /usr/share/texlive/texmf-dist/tex/latex/amsmath/amsmath.sty
INPUT /usr/share/texlive/texmf-dist/tex/latex/amsmath/amsbsy.sty
INPUT /usr/share/texlive/texmf-dist/tex/latex/amsmath/amsbsy.sty
INPUT /usr/share/texlive/texmf-dist/tex/latex/amsmath/amsopn.sty
INPUT /usr/share/texlive/texmf-dist/tex/latex/amsmath/amsopn.sty
INPUT /usr/share/texlive/texmf-dist/tex/latex/amsfonts/amsfonts.sty
INPUT /usr/share/texlive/texmf-dist/tex/latex/amsfonts/amsfonts.sty
INPUT /usr/share/texlive/texmf-dist/tex/latex/amsfonts/amssymb.sty
INPUT /usr/share/texlive/texmf-dist/tex/latex/amsfonts/amssymb.sty
INPUT /usr/share/texlive/texmf-dist/tex/latex/jknapltx/mathrsfs.sty
INPUT /usr/share/texlive/texmf-dist/tex/latex/jknapltx/mathrsfs.sty
INPUT /usr/share/texlive/texmf-dist/tex/latex/stmaryrd/stmaryrd.sty
INPUT /usr/share/texlive/texmf-dist/tex/latex/stmaryrd/stmaryrd.sty
INPUT /usr/share/texlive/texmf-dist/tex/latex/numprint/numprint.sty
INPUT /usr/share/texlive/texmf-dist/tex/latex/numprint/numprint.sty
INPUT /usr/share/texlive/texmf-dist/tex/latex/ntheorem/ntheorem.sty
INPUT /usr/share/texlive/texmf-dist/tex/latex/ntheorem/ntheorem.sty
INPUT /usr/share/texlive/texmf-dist/tex/latex/bbm-macros/bbm.sty
INPUT /usr/share/texlive/texmf-dist/tex/latex/bbm-macros/bbm.sty
INPUT /usr/share/texlive/texmf-dist/tex/latex/doublestroke/dsfont.sty
INPUT /usr/share/texlive/texmf-dist/tex/latex/doublestroke/dsfont.sty
INPUT /usr/share/texlive/texmf-dist/tex/latex/esint/esint.sty
INPUT /usr/share/texlive/texmf-dist/tex/latex/esint/esint.sty
INPUT /usr/share/texlive/texmf-dist/tex/latex/esvect/esvect.sty
INPUT /usr/share/texlive/texmf-dist/tex/latex/esvect/esvect.sty
INPUT /usr/share/texlive/texmf-dist/tex/latex/lcg/lcg.sty
INPUT /usr/share/texlive/texmf-dist/tex/latex/lcg/lcg.sty
INPUT /usr/share/texlive/texmf-dist/tex/latex/tools/tabularx.sty
INPUT /usr/share/texlive/texmf-dist/tex/latex/tools/tabularx.sty
INPUT /usr/share/texlive/texmf-dist/tex/latex/tools/longtable.sty
INPUT /usr/share/texlive/texmf-dist/tex/latex/tools/longtable.sty
INPUT /usr/share/texlive/texmf-dist/tex/latex/alterqcm/alterqcm.sty
INPUT /usr/share/texlive/texmf-dist/tex/latex/alterqcm/alterqcm.sty
INPUT /usr/share/texlive/texmf-dist/tex/latex/multirow/multirow.sty
INPUT /usr/share/texlive/texmf-dist/tex/latex/multirow/multirow.sty
INPUT /usr/share/texlive/texmf-dist/tex/latex/tools/xspace.sty
INPUT /usr/share/texlive/texmf-dist/tex/latex/tools/xspace.sty
INPUT /usr/share/texlive/texmf-dist/tex/latex/float/float.sty
INPUT /usr/share/texlive/texmf-dist/tex/latex/float/float.sty
INPUT /usr/share/texlive/texmf-dist/tex/latex/tools/afterpage.sty
INPUT /usr/share/texlive/texmf-dist/tex/latex/tools/afterpage.sty
INPUT /usr/share/texlive/texmf-dist/tex/latex/placeins/placeins.sty
INPUT /usr/share/texlive/texmf-dist/tex/latex/placeins/placeins.sty
INPUT /usr/share/texlive/texmf-dist/tex/latex/subfig/subfig.sty
INPUT /usr/share/texlive/texmf-dist/tex/latex/subfig/subfig.sty
INPUT /usr/share/texlive/texmf-dist/tex/latex/caption/caption.sty
INPUT /usr/share/texlive/texmf-dist/tex/latex/caption/caption.sty
INPUT /usr/share/texlive/texmf-dist/tex/latex/caption/caption3.sty
INPUT /usr/share/texlive/texmf-dist/tex/latex/caption/caption3.sty
INPUT /usr/share/texlive/texmf-dist/tex/latex/caption/ltcaption.sty
INPUT /usr/share/texlive/texmf-dist/tex/latex/caption/ltcaption.sty
INPUT /usr/share/texlive/texmf-dist/tex/latex/listings/listings.sty
INPUT /usr/share/texlive/texmf-dist/tex/latex/listings/listings.sty
INPUT /usr/share/texlive/texmf-dist/tex/latex/listings/lstmisc.sty
INPUT /usr/share/texlive/texmf-dist/tex/latex/listings/lstmisc.sty
INPUT /usr/share/texlive/texmf-dist/tex/latex/listings/listings.cfg
INPUT /usr/share/texlive/texmf-dist/tex/latex/listings/listings.cfg
INPUT /usr/share/texlive/texmf-dist/tex/latex/listings/lstlang1.sty
INPUT /usr/share/texlive/texmf-dist/tex/latex/listings/lstlang1.sty
INPUT /usr/share/texlive/texmf-dist/tex/latex/algorithms/algorithm.sty
INPUT /usr/share/texlive/texmf-dist/tex/latex/algorithms/algorithm.sty
INPUT /usr/share/texlive/texmf-dist/tex/latex/algorithmicx/algpseudocode.sty
INPUT /usr/share/texlive/texmf-dist/tex/latex/algorithmicx/algpseudocode.sty
INPUT /usr/share/texlive/texmf-dist/tex/latex/algorithmicx/algorithmicx.sty
INPUT /usr/share/texlive/texmf-dist/tex/latex/algorithmicx/algorithmicx.sty
INPUT /usr/share/texlive/texmf-dist/tex/latex/hyperref/hyperref.sty
INPUT /usr/share/texlive/texmf-dist/tex/latex/hyperref/hyperref.sty
INPUT /usr/share/texlive/texmf-dist/tex/generic/pdfescape/pdfescape.sty
INPUT /usr/share/texlive/texmf-dist/tex/generic/pdfescape/pdfescape.sty
INPUT /usr/share/texlive/texmf-dist/tex/latex/hycolor/hycolor.sty
INPUT /usr/share/texlive/texmf-dist/tex/latex/hycolor/hycolor.sty
INPUT /usr/share/texlive/texmf-dist/tex/latex/letltxmacro/letltxmacro.sty
INPUT /usr/share/texlive/texmf-dist/tex/latex/letltxmacro/letltxmacro.sty
INPUT /usr/share/texlive/texmf-dist/tex/latex/hyperref/pd1enc.def
INPUT /usr/share/texlive/texmf-dist/tex/latex/hyperref/pd1enc.def
INPUT /usr/share/texlive/texmf-dist/tex/generic/intcalc/intcalc.sty
INPUT /usr/share/texlive/texmf-dist/tex/generic/intcalc/intcalc.sty
INPUT /usr/share/texlive/texmf-dist/tex/generic/bitset/bitset.sty
INPUT /usr/share/texlive/texmf-dist/tex/generic/bitset/bitset.sty
INPUT /usr/share/texlive/texmf-dist/tex/generic/bigintcalc/bigintcalc.sty
INPUT /usr/share/texlive/texmf-dist/tex/generic/bigintcalc/bigintcalc.sty
INPUT /usr/share/texlive/texmf-dist/tex/latex/hyperref/hpdftex.def
INPUT /usr/share/texlive/texmf-dist/tex/latex/hyperref/hpdftex.def
INPUT /usr/share/texlive/texmf-dist/tex/latex/atveryend/atveryend.sty
INPUT /usr/share/texlive/texmf-dist/tex/latex/atveryend/atveryend.sty
INPUT /usr/share/texlive/texmf-dist/tex/latex/rerunfilecheck/rerunfilecheck.sty
INPUT /usr/share/texlive/texmf-dist/tex/latex/rerunfilecheck/rerunfilecheck.sty
INPUT /usr/share/texlive/texmf-dist/tex/generic/uniquecounter/uniquecounter.sty
INPUT /usr/share/texlive/texmf-dist/tex/generic/uniquecounter/uniquecounter.sty
INPUT /usr/share/texlive/texmf-dist/tex/latex/fancyhdr/fancyhdr.sty
INPUT /usr/share/texlive/texmf-dist/tex/latex/fancyhdr/fancyhdr.sty
INPUT Chapitre6-ReprésentationEntiers-2021V1.aux
INPUT Chapitre6-ReprésentationEntiers-2021V1.aux
OUTPUT Chapitre6-ReprésentationEntiers-2021V1.aux
INPUT /usr/share/texlive/texmf-dist/tex/latex/fourier/fmlfutm.fd
INPUT /usr/share/texlive/texmf-dist/tex/latex/fourier/fmlfutm.fd
INPUT /usr/share/texlive/texmf-dist/tex/latex/fourier/fmsfutm.fd
INPUT /usr/share/texlive/texmf-dist/tex/latex/fourier/fmsfutm.fd
INPUT /usr/share/texlive/texmf-dist/tex/latex/fourier/fmxfutm.fd
INPUT /usr/share/texlive/texmf-dist/tex/latex/fourier/fmxfutm.fd
INPUT /usr/share/texlive/texmf-dist/tex/context/base/mkii/supp-pdf.mkii
INPUT /usr/share/texlive/texmf-dist/tex/context/base/mkii/supp-pdf.mkii
INPUT /usr/share/texlive/texmf-dist/tex/latex/epstopdf-pkg/epstopdf-base.sty
INPUT /usr/share/texlive/texmf-dist/tex/latex/epstopdf-pkg/epstopdf-base.sty
INPUT /usr/share/texlive/texmf-dist/tex/latex/latexconfig/epstopdf-sys.cfg
INPUT /usr/share/texlive/texmf-dist/tex/latex/latexconfig/epstopdf-sys.cfg
INPUT /usr/share/texlive/texmf-dist/tex/latex/translator/translator-basic-dictionary-English.dict
INPUT /usr/share/texlive/texmf-dist/tex/latex/translator/translator-basic-dictionary-English.dict
INPUT /usr/share/texlive/texmf-dist/tex/latex/translator/translator-basic-dictionary-French.dict
INPUT /usr/share/texlive/texmf-dist/tex/latex/translator/translator-basic-dictionary-French.dict
INPUT /usr/share/texlive/texmf-dist/tex/latex/siunitx/siunitx-abbreviations.cfg
INPUT /usr/share/texlive/texmf-dist/tex/latex/siunitx/siunitx-abbreviations.cfg
OUTPUT Chapitre6-ReprésentationEntiers-2021V1.out
INPUT /usr/share/texlive/texmf-dist/fonts/tfm/public/fourier/futr8t.tfm
INPUT /usr/share/texlive/texmf-dist/fonts/tfm/public/fourier/futr8t.tfm
INPUT /usr/share/texlive/texmf-dist/tex/latex/fourier/fmlfutmi.fd
INPUT /usr/share/texlive/texmf-dist/tex/latex/fourier/fmlfutmi.fd
INPUT /usr/share/texlive/texmf-dist/fonts/tfm/public/fourier/futmii.tfm
INPUT /usr/share/texlive/texmf-dist/fonts/tfm/public/fourier/futmii.tfm
INPUT /usr/share/texlive/texmf-dist/fonts/tfm/public/fourier/futmii.tfm
INPUT /usr/share/texlive/texmf-dist/fonts/tfm/public/fourier/futsy.tfm
INPUT /usr/share/texlive/texmf-dist/fonts/tfm/public/fourier/futsy.tfm
INPUT /usr/share/texlive/texmf-dist/fonts/tfm/public/fourier/futsy.tfm
INPUT /usr/share/texlive/texmf-dist/fonts/tfm/public/fourier/fourier-mex.tfm
INPUT /usr/share/texlive/texmf-dist/fonts/tfm/public/fourier/fourier-mex.tfm
INPUT /usr/share/texlive/texmf-dist/fonts/tfm/public/fourier/fourier-mex.tfm
INPUT /usr/share/texlive/texmf-dist/fonts/tfm/public/fourier/futmi.tfm
INPUT /usr/share/texlive/texmf-dist/fonts/tfm/public/fourier/futmi.tfm
INPUT /usr/share/texlive/texmf-dist/fonts/tfm/public/fourier/futmi.tfm
INPUT /usr/share/texlive/texmf-dist/fonts/tfm/public/fourier/fourier-bb.tfm
INPUT /usr/share/texlive/texmf-dist/fonts/tfm/public/fourier/fourier-bb.tfm
INPUT /usr/share/texlive/texmf-dist/fonts/tfm/public/fourier/fourier-bb.tfm
INPUT /usr/share/texlive/texmf-dist/tex/latex/amsfonts/umsa.fd
INPUT /usr/share/texlive/texmf-dist/tex/latex/amsfonts/umsa.fd
INPUT /usr/share/texlive/texmf-dist/fonts/tfm/public/amsfonts/symbols/msam10.tfm
INPUT /usr/share/texlive/texmf-dist/fonts/tfm/public/amsfonts/symbols/msam10.tfm
INPUT /usr/share/texlive/texmf-dist/fonts/tfm/public/amsfonts/symbols/msam7.tfm
INPUT /usr/share/texlive/texmf-dist/tex/latex/amsfonts/umsb.fd
INPUT /usr/share/texlive/texmf-dist/tex/latex/amsfonts/umsb.fd
INPUT /usr/share/texlive/texmf-dist/fonts/tfm/public/amsfonts/symbols/msbm10.tfm
INPUT /usr/share/texlive/texmf-dist/fonts/tfm/public/amsfonts/symbols/msbm10.tfm
INPUT /usr/share/texlive/texmf-dist/fonts/tfm/public/amsfonts/symbols/msbm7.tfm
INPUT /usr/share/texlive/texmf-dist/tex/latex/jknapltx/ursfs.fd
INPUT /usr/share/texlive/texmf-dist/tex/latex/jknapltx/ursfs.fd
INPUT /usr/share/texlive/texmf-dist/fonts/tfm/public/rsfs/rsfs10.tfm
INPUT /usr/share/texlive/texmf-dist/fonts/tfm/public/rsfs/rsfs10.tfm
INPUT /usr/share/texlive/texmf-dist/fonts/tfm/public/rsfs/rsfs7.tfm
INPUT /usr/share/texlive/texmf-dist/tex/latex/stmaryrd/Ustmry.fd
INPUT /usr/share/texlive/texmf-dist/tex/latex/stmaryrd/Ustmry.fd
INPUT /usr/share/texlive/texmf-dist/fonts/tfm/public/stmaryrd/stmary10.tfm
INPUT /usr/share/texlive/texmf-dist/fonts/tfm/public/stmaryrd/stmary9.tfm
INPUT /usr/share/texlive/texmf-dist/fonts/tfm/public/stmaryrd/stmary7.tfm
INPUT /usr/share/texlive/texmf-dist/tex/latex/esint/uesint.fd
INPUT /usr/share/texlive/texmf-dist/tex/latex/esint/uesint.fd
INPUT /usr/share/texlive/texmf-dist/fonts/tfm/public/esint/esint10.tfm
INPUT /usr/share/texlive/texmf-dist/fonts/tfm/public/esint/esint10.tfm
INPUT /usr/share/texlive/texmf-dist/fonts/tfm/public/esint/esint10.tfm
INPUT /usr/share/texlive/texmf-dist/tex/latex/esvect/uesvect.fd
INPUT /usr/share/texlive/texmf-dist/tex/latex/esvect/uesvect.fd
INPUT /usr/share/texlive/texmf-dist/fonts/tfm/public/esvect/vect10.tfm
INPUT /usr/share/texlive/texmf-dist/fonts/tfm/public/esvect/vect9.tfm
INPUT /usr/share/texlive/texmf-dist/fonts/tfm/public/esvect/vect7.tfm
INPUT /usr/share/texmf/tex/latex/lm/ot1lmss.fd
INPUT /usr/share/texmf/tex/latex/lm/ot1lmss.fd
INPUT /usr/share/texmf/fonts/tfm/public/lm/rm-lmss12.tfm
INPUT /usr/share/texmf/fonts/tfm/public/lm/rm-lmss9.tfm
INPUT /usr/share/texmf/fonts/tfm/public/lm/rm-lmss8.tfm
INPUT /usr/share/texmf/tex/latex/lm/ot1lmtt.fd
INPUT /usr/share/texmf/tex/latex/lm/ot1lmtt.fd
INPUT /usr/share/texmf/fonts/tfm/public/lm/rm-lmtt12.tfm
INPUT /usr/share/texmf/fonts/tfm/public/lm/rm-lmtt9.tfm
INPUT /usr/share/texmf/fonts/tfm/public/lm/rm-lmtt8.tfm
INPUT /usr/share/texlive/texmf-dist/tex/latex/bclogo/bc-rosevents.mps
INPUT /usr/share/texlive/texmf-dist/tex/latex/bclogo/bc-rosevents.mps
INPUT /usr/share/texlive/texmf-dist/tex/latex/bclogo/bc-rosevents.mps
INPUT /usr/share/texlive/texmf-dist/fonts/tfm/public/fourier/futr8t.tfm
INPUT /usr/share/texlive/texmf-dist/fonts/tfm/public/fourier/futb8t.tfm
INPUT /usr/share/texlive/texmf-dist/fonts/tfm/public/fourier/futri8t.tfm
INPUT /usr/share/texlive/texmf-dist/fonts/tfm/public/fourier/futb8t.tfm
INPUT /usr/share/texmf/fonts/tfm/public/lm/ec-lmtl10.tfm
INPUT /usr/share/texlive/texmf-dist/fonts/tfm/public/fourier/futr8t.tfm
INPUT /usr/share/texlive/texmf-dist/fonts/tfm/public/fourier/futb8t.tfm
INPUT /usr/share/texlive/texmf-dist/tex/latex/bclogo/bc-crayon.mps
INPUT /usr/share/texlive/texmf-dist/tex/latex/bclogo/bc-crayon.mps
INPUT /usr/share/texlive/texmf-dist/tex/latex/bclogo/bc-crayon.mps
INPUT /usr/share/texlive/texmf-dist/fonts/tfm/public/fourier/futbi8t.tfm
INPUT /usr/share/texlive/texmf-dist/tex/latex/bclogo/bc-crayon.mps
INPUT /usr/share/texlive/texmf-dist/tex/latex/bclogo/bc-crayon.mps
INPUT /home/fjunier/Maths/logo-parc.png
INPUT /home/fjunier/Maths/logo-parc.png
INPUT /home/fjunier/Maths/logo-parc.png
INPUT /usr/share/texlive/texmf-dist/tex/latex/fourier/ts1futs.fd
INPUT /usr/share/texlive/texmf-dist/tex/latex/fourier/ts1futs.fd
INPUT /usr/share/texlive/texmf-dist/fonts/tfm/public/fourier/futb8c.tfm
INPUT /usr/share/texlive/texmf-dist/fonts/vf/public/fourier/futb8t.vf
INPUT /usr/share/texlive/texmf-dist/fonts/tfm/public/fourier/futb8r.tfm
INPUT /usr/share/texlive/texmf-dist/fonts/tfm/public/fourier/fourier-alt-bold.tfm
INPUT /var/lib/texmf/fonts/map/pdftex/updmap/pdftex.map
INPUT /usr/share/texlive/texmf-dist/fonts/vf/public/fourier/futb8c.vf
INPUT /usr/share/texlive/texmf-dist/fonts/tfm/public/fourier/fourier-orns.tfm
INPUT /usr/share/texlive/texmf-dist/fonts/vf/public/fourier/futr8t.vf
INPUT /usr/share/texlive/texmf-dist/fonts/tfm/public/fourier/futr8r.tfm
INPUT /usr/share/texlive/texmf-dist/fonts/tfm/public/fourier/fourier-alt.tfm
INPUT /usr/share/texlive/texmf-dist/fonts/vf/public/fourier/futr8t.vf
INPUT /usr/share/texlive/texmf-dist/fonts/tfm/public/fourier/futr8r.tfm
INPUT /usr/share/texlive/texmf-dist/fonts/tfm/public/fourier/fourier-alt.tfm
INPUT /usr/share/texlive/texmf-dist/fonts/vf/public/fourier/futr8t.vf
INPUT /usr/share/texlive/texmf-dist/fonts/tfm/public/fourier/futr8r.tfm
INPUT /usr/share/texlive/texmf-dist/fonts/tfm/public/fourier/fourier-alt.tfm
INPUT /usr/share/texlive/texmf-dist/fonts/vf/public/fourier/futsy.vf
INPUT /usr/share/texlive/texmf-dist/fonts/tfm/public/fourier/fourier-ms.tfm
INPUT /usr/share/texlive/texmf-dist/fonts/tfm/public/fourier/fourier-mcl.tfm
INPUT /usr/share/texlive/texmf-dist/fonts/vf/public/fourier/futb8t.vf
INPUT /usr/share/texlive/texmf-dist/fonts/tfm/public/fourier/futb8r.tfm
INPUT /usr/share/texlive/texmf-dist/fonts/tfm/public/fourier/fourier-alt-bold.tfm
INPUT /usr/share/texlive/texmf-dist/fonts/vf/public/fourier/futb8t.vf
INPUT /usr/share/texlive/texmf-dist/fonts/tfm/public/fourier/futb8r.tfm
INPUT /usr/share/texlive/texmf-dist/fonts/tfm/public/fourier/fourier-alt-bold.tfm
INPUT /usr/share/texlive/texmf-dist/tex/latex/bclogo/bc-crayon.mps
INPUT /usr/share/texlive/texmf-dist/tex/latex/bclogo/bc-crayon.mps
INPUT /usr/share/texlive/texmf-dist/fonts/tfm/public/fourier/futr8t.tfm
INPUT /usr/share/texmf/fonts/tfm/public/lm/ec-lmtl10.tfm
INPUT /home/fjunier/Maths/logo-parc.png
INPUT /home/fjunier/Maths/logo-parc.png
INPUT /usr/share/texlive/texmf-dist/tex/latex/bclogo/bc-book.mps
INPUT /usr/share/texlive/texmf-dist/tex/latex/bclogo/bc-book.mps
INPUT /usr/share/texlive/texmf-dist/tex/latex/bclogo/bc-book.mps
INPUT /home/fjunier/Maths/logo-parc.png
INPUT /home/fjunier/Maths/logo-parc.png
INPUT /usr/share/texlive/texmf-dist/tex/latex/bclogo/bc-crayon.mps
INPUT /usr/share/texlive/texmf-dist/tex/latex/bclogo/bc-crayon.mps
INPUT /home/fjunier/Maths/logo-parc.png
INPUT /home/fjunier/Maths/logo-parc.png
INPUT /usr/share/texlive/texmf-dist/fonts/vf/public/fourier/futmii.vf
INPUT /usr/share/texlive/texmf-dist/fonts/tfm/public/fourier/fourier-mlit.tfm
INPUT /usr/share/texlive/texmf-dist/fonts/tfm/public/fourier/fourier-ml.tfm
INPUT /usr/share/texlive/texmf-dist/fonts/tfm/public/fourier/futri8r.tfm
INPUT /usr/share/texlive/texmf-dist/fonts/vf/public/fourier/futmii.vf
INPUT /usr/share/texlive/texmf-dist/fonts/tfm/public/fourier/fourier-mlit.tfm
INPUT /usr/share/texlive/texmf-dist/fonts/tfm/public/fourier/fourier-ml.tfm
INPUT /usr/share/texlive/texmf-dist/fonts/tfm/public/fourier/futri8r.tfm
INPUT /usr/share/texlive/texmf-dist/fonts/vf/public/fourier/futsy.vf
INPUT /usr/share/texlive/texmf-dist/fonts/tfm/public/fourier/fourier-ms.tfm
INPUT /usr/share/texlive/texmf-dist/fonts/tfm/public/fourier/fourier-mcl.tfm
INPUT /usr/share/texlive/texmf-dist/tex/latex/bclogo/bc-crayon.mps
INPUT /usr/share/texlive/texmf-dist/tex/latex/bclogo/bc-crayon.mps
INPUT /home/fjunier/Maths/logo-parc.png
INPUT /home/fjunier/Maths/logo-parc.png
INPUT /usr/share/texlive/texmf-dist/fonts/vf/public/fourier/futri8t.vf
INPUT /usr/share/texlive/texmf-dist/fonts/tfm/public/fourier/fourier-alt-ita.tfm
INPUT /usr/share/texlive/texmf-dist/tex/latex/bclogo/bc-crayon.mps
INPUT /usr/share/texlive/texmf-dist/tex/latex/bclogo/bc-crayon.mps
INPUT /usr/share/texlive/texmf-dist/tex/latex/bclogo/bc-attention.mps
INPUT /usr/share/texlive/texmf-dist/tex/latex/bclogo/bc-attention.mps
INPUT /usr/share/texlive/texmf-dist/tex/latex/bclogo/bc-attention.mps
INPUT /usr/share/texlive/texmf-dist/tex/latex/bclogo/bc-outil.mps
INPUT /usr/share/texlive/texmf-dist/tex/latex/bclogo/bc-outil.mps
INPUT /usr/share/texlive/texmf-dist/tex/latex/bclogo/bc-outil.mps
INPUT /home/fjunier/Maths/logo-parc.png
INPUT /home/fjunier/Maths/logo-parc.png
INPUT /usr/share/texlive/texmf-dist/tex/latex/bclogo/bc-book.mps
INPUT /usr/share/texlive/texmf-dist/tex/latex/bclogo/bc-book.mps
INPUT /usr/share/texlive/texmf-dist/tex/latex/bclogo/bc-crayon.mps
INPUT /usr/share/texlive/texmf-dist/tex/latex/bclogo/bc-crayon.mps
INPUT /usr/share/texlive/texmf-dist/fonts/tfm/public/fourier/futr8c.tfm
INPUT /home/fjunier/Maths/logo-parc.png
INPUT /home/fjunier/Maths/logo-parc.png
INPUT /usr/share/texlive/texmf-dist/fonts/vf/public/fourier/futr8t.vf
INPUT /usr/share/texlive/texmf-dist/fonts/tfm/public/fourier/futr8r.tfm
INPUT /usr/share/texlive/texmf-dist/fonts/tfm/public/fourier/fourier-alt.tfm
INPUT /usr/share/texlive/texmf-dist/tex/latex/bclogo/bc-outil.mps
INPUT /usr/share/texlive/texmf-dist/tex/latex/bclogo/bc-outil.mps
INPUT /usr/share/texlive/texmf-dist/tex/latex/bclogo/bc-outil.mps
INPUT /usr/share/texlive/texmf-dist/tex/latex/bclogo/bc-outil.mps
INPUT /usr/share/texlive/texmf-dist/tex/latex/bclogo/bc-crayon.mps
INPUT /usr/share/texlive/texmf-dist/tex/latex/bclogo/bc-crayon.mps
INPUT /home/fjunier/Maths/logo-parc.png
INPUT /home/fjunier/Maths/logo-parc.png
INPUT /usr/share/texlive/texmf-dist/fonts/vf/public/fourier/futr8c.vf
INPUT /usr/share/texlive/texmf-dist/fonts/vf/public/fourier/futbi8t.vf
INPUT /usr/share/texlive/texmf-dist/fonts/tfm/public/fourier/futbi8r.tfm
INPUT /usr/share/texlive/texmf-dist/fonts/tfm/public/fourier/fourier-alt-boldita.tfm
INPUT /usr/share/texlive/texmf-dist/fonts/tfm/public/fourier/futr8t.tfm
INPUT /usr/share/texlive/texmf-dist/fonts/tfm/public/fourier/futr8t.tfm
INPUT /usr/share/texlive/texmf-dist/fonts/tfm/public/fourier/futmii.tfm
INPUT /usr/share/texlive/texmf-dist/fonts/tfm/public/fourier/futmii.tfm
INPUT /usr/share/texlive/texmf-dist/fonts/tfm/public/fourier/futmii.tfm
INPUT /usr/share/texlive/texmf-dist/fonts/tfm/public/fourier/futsy.tfm
INPUT /usr/share/texlive/texmf-dist/fonts/tfm/public/fourier/futsy.tfm
INPUT /usr/share/texlive/texmf-dist/fonts/tfm/public/fourier/futsy.tfm
INPUT /usr/share/texlive/texmf-dist/fonts/tfm/public/fourier/fourier-mex.tfm
INPUT /usr/share/texlive/texmf-dist/fonts/tfm/public/fourier/fourier-mex.tfm
INPUT /usr/share/texlive/texmf-dist/fonts/tfm/public/fourier/fourier-mex.tfm
INPUT /usr/share/texmf/fonts/tfm/public/lm/rm-lmss12.tfm
INPUT /usr/share/texmf/fonts/tfm/public/lm/rm-lmss10.tfm
INPUT /usr/share/texmf/fonts/tfm/public/lm/rm-lmss8.tfm
INPUT /usr/share/texmf/fonts/tfm/public/lm/rm-lmtt12.tfm
INPUT /usr/share/texmf/fonts/tfm/public/lm/rm-lmtt10.tfm
INPUT /usr/share/texmf/fonts/tfm/public/lm/rm-lmtt8.tfm
INPUT /usr/share/texlive/texmf-dist/fonts/tfm/public/fourier/futmi.tfm
INPUT /usr/share/texlive/texmf-dist/fonts/tfm/public/fourier/futmi.tfm
INPUT /usr/share/texlive/texmf-dist/fonts/tfm/public/fourier/futmi.tfm
INPUT /usr/share/texlive/texmf-dist/fonts/tfm/public/fourier/fourier-bb.tfm
INPUT /usr/share/texlive/texmf-dist/fonts/tfm/public/fourier/fourier-bb.tfm
INPUT /usr/share/texlive/texmf-dist/fonts/tfm/public/fourier/fourier-bb.tfm
INPUT /usr/share/texlive/texmf-dist/fonts/tfm/public/amsfonts/symbols/msam10.tfm
INPUT /usr/share/texlive/texmf-dist/fonts/tfm/public/amsfonts/symbols/msam10.tfm
INPUT /usr/share/texlive/texmf-dist/fonts/tfm/public/amsfonts/symbols/msam10.tfm
INPUT /usr/share/texlive/texmf-dist/fonts/tfm/public/amsfonts/symbols/msbm10.tfm
INPUT /usr/share/texlive/texmf-dist/fonts/tfm/public/amsfonts/symbols/msbm10.tfm
INPUT /usr/share/texlive/texmf-dist/fonts/tfm/public/amsfonts/symbols/msbm10.tfm
INPUT /usr/share/texlive/texmf-dist/fonts/tfm/public/rsfs/rsfs10.tfm
INPUT /usr/share/texlive/texmf-dist/fonts/tfm/public/rsfs/rsfs10.tfm
INPUT /usr/share/texlive/texmf-dist/fonts/tfm/public/rsfs/rsfs10.tfm
INPUT /usr/share/texlive/texmf-dist/fonts/tfm/public/stmaryrd/stmary10.tfm
INPUT /usr/share/texlive/texmf-dist/fonts/tfm/public/stmaryrd/stmary10.tfm
INPUT /usr/share/texlive/texmf-dist/fonts/tfm/public/stmaryrd/stmary8.tfm
INPUT /usr/share/texlive/texmf-dist/fonts/tfm/public/esint/esint10.tfm
INPUT /usr/share/texlive/texmf-dist/fonts/tfm/public/esint/esint10.tfm
INPUT /usr/share/texlive/texmf-dist/fonts/tfm/public/esint/esint10.tfm
INPUT /usr/share/texlive/texmf-dist/fonts/tfm/public/esvect/vect10.tfm
INPUT /usr/share/texlive/texmf-dist/fonts/tfm/public/esvect/vect10.tfm
INPUT /usr/share/texlive/texmf-dist/fonts/tfm/public/esvect/vect8.tfm
INPUT /usr/share/texlive/texmf-dist/tex/latex/bclogo/bc-outil.mps
INPUT /usr/share/texlive/texmf-dist/tex/latex/bclogo/bc-outil.mps
INPUT /home/fjunier/Maths/logo-parc.png
INPUT /home/fjunier/Maths/logo-parc.png
INPUT /usr/share/texlive/texmf-dist/fonts/vf/public/fourier/futr8t.vf
INPUT /usr/share/texlive/texmf-dist/fonts/tfm/public/fourier/futr8r.tfm
INPUT /usr/share/texlive/texmf-dist/fonts/tfm/public/fourier/fourier-alt.tfm
INPUT /usr/share/texlive/texmf-dist/tex/latex/bclogo/bc-crayon.mps
INPUT /usr/share/texlive/texmf-dist/tex/latex/bclogo/bc-crayon.mps
INPUT /usr/share/texlive/texmf-dist/fonts/tfm/public/fourier/futbi8t.tfm
INPUT /usr/share/texlive/texmf-dist/tex/latex/bclogo/bc-attention.mps
INPUT /usr/share/texlive/texmf-dist/tex/latex/bclogo/bc-attention.mps
INPUT /home/fjunier/Maths/logo-parc.png
INPUT /home/fjunier/Maths/logo-parc.png
INPUT /usr/share/texlive/texmf-dist/fonts/vf/public/fourier/futbi8t.vf
INPUT /usr/share/texlive/texmf-dist/fonts/tfm/public/fourier/futbi8r.tfm
INPUT /usr/share/texlive/texmf-dist/fonts/tfm/public/fourier/fourier-alt-boldita.tfm
INPUT /home/fjunier/Maths/logo-parc.png
INPUT /home/fjunier/Maths/logo-parc.png
INPUT /home/fjunier/Maths/logo-parc.png
INPUT /home/fjunier/Maths/logo-parc.png
OUTPUT Chapitre6-ReprésentationEntiers-2021V1.thm
INPUT Chapitre6-ReprésentationEntiers-2021V1.aux
INPUT ./Chapitre6-ReprésentationEntiers-2021V1.out
INPUT ./Chapitre6-ReprésentationEntiers-2021V1.out
INPUT /usr/share/texlive/texmf-dist/fonts/enc/dvips/base/8r.enc
INPUT /usr/share/texmf/fonts/enc/dvips/lm/lm-ec.enc
INPUT /usr/share/texlive/texmf-dist/fonts/type1/public/fourier/fourier-mex.pfb
INPUT /usr/share/texlive/texmf-dist/fonts/type1/public/fourier/fourier-ms.pfb
INPUT /usr/share/texlive/texmf-dist/fonts/type1/public/amsfonts/latxfont/lcircle1.pfb
INPUT /usr/share/texmf/fonts/type1/public/lm/lmtl10.pfb
INPUT /usr/share/texlive/texmf-dist/fonts/type1/adobe/utopia/putb8a.pfb
INPUT /usr/share/texlive/texmf-dist/fonts/type1/adobe/utopia/putbi8a.pfb
INPUT /usr/share/texlive/texmf-dist/fonts/type1/adobe/utopia/putr8a.pfb
INPUT /usr/share/texlive/texmf-dist/fonts/type1/adobe/utopia/putri8a.pfb
INPUT /usr/share/texlive/texmf-dist/fonts/type1/public/stmaryrd/stmary10.pfb
INPUT /usr/share/texlive/texmf-dist/fonts/type1/urw/zapfding/uzdr.pfb
