digraph G {

  20[color=red];
  20 -> 17;
  16[color=red];
  17 -> 16;
  16 -> 15;
  12[color=red];
  15 -> 12;
  12-> 10;

  10->8;
  8->5;
  8[color=red];
  5->4;
  4->1;
  4[color=red];
  1->0 ;
  0[color=red];
 
}
